<svg width="48" height="52" viewBox="0 0 48 52" fill="none" xmlns="http://www.w3.org/2000/svg">
<path d="M26.4368 2.11642C27.428 0.961111 29.2542 0.66325 30.5756 1.40741C31.5668 1.94942 32.2934 2.86644 32.8442 3.83425C33.9556 5.8431 34.4292 8.18302 34.2847 10.4682C34.23 11.5552 33.9985 12.649 33.4741 13.6099C32.5141 15.358 31.2631 16.946 30.472 18.7839C30.9389 19.1687 31.5649 19.282 32.1547 19.2361C33.4555 19.1121 34.7642 19.1326 36.0699 19.155C38.0944 19.2107 40.1306 19.2488 42.1335 19.574C43.5398 19.7615 44.6512 20.7772 45.4969 21.8485C46.2362 22.8241 46.8681 23.9667 46.9208 25.2158C46.9208 26.5898 46.2255 27.8223 45.5907 28.9962C46.3593 30.1232 47.0409 31.4396 46.8759 32.8469C46.7079 34.1467 45.8036 35.1624 45.0282 36.1565C45.4794 37.2718 45.8319 38.5258 45.4696 39.7182C45.0897 40.8715 44.2615 41.7915 43.5643 42.7622C43.6658 43.4283 43.865 44.0757 43.9686 44.7408C44.0613 45.6822 43.5594 46.5641 42.949 47.2419C41.8005 48.4968 40.1882 49.2273 38.5514 49.6033C36.2535 50.1433 33.9204 50.5369 31.5756 50.8025C30.2777 50.9353 28.9691 51.0642 27.6643 50.9646C25.6604 50.8172 23.6896 50.3894 21.7433 49.907C20.1475 49.5359 18.5957 48.9812 16.9736 48.7273C15.8749 48.5495 14.7645 48.4353 13.6532 48.3884C13.035 49.2155 12.0017 49.6921 10.9714 49.6404C8.62566 49.6287 6.27989 49.6511 3.93411 49.6296C2.37156 49.5701 1.01019 48.1706 1.00433 46.6041C0.995541 40.518 1.00335 34.4329 1.00042 28.3467C1.00726 27.4824 1.39008 26.6299 2.03561 26.0547C2.60301 25.5351 3.36769 25.2451 4.13724 25.248C6.48204 25.246 8.82684 25.247 11.1716 25.248C11.9549 25.2421 12.7215 25.5654 13.2938 26.0937C13.9872 25.5507 14.6346 24.9296 15.0966 24.1737C15.9159 22.8593 16.4491 21.3963 16.9902 19.9529C17.3212 19.0837 17.5927 18.1824 18.0752 17.3806C19.1992 15.4469 20.8858 13.943 22.4786 12.4078C23.214 11.7241 23.7336 10.8452 24.1242 9.92819C24.8068 8.30509 25.1779 6.56675 25.3977 4.82451C25.4885 3.8528 25.7805 2.86156 26.4368 2.11642ZM28.5491 4.81768C28.3138 6.88317 27.9036 8.94769 27.1175 10.8794C26.5793 12.1988 25.8567 13.4644 24.8352 14.4703C23.4621 15.8288 21.9601 17.0983 20.9063 18.7371C20.4659 19.4031 20.252 20.1775 19.9698 20.9158C19.3467 22.5809 18.7246 24.2636 17.7802 25.7793C16.916 27.1846 15.6669 28.3243 14.286 29.211C14.2879 34.5706 14.2743 39.9301 14.2928 45.2896C15.3368 45.3502 16.3788 45.4635 17.4111 45.6305C19.333 45.9215 21.168 46.5856 23.0597 47.0124C25.2678 47.528 27.5305 48.027 29.8119 47.8249C32.4184 47.6217 35.0073 47.1999 37.5582 46.6256C38.7643 46.3649 40.0514 45.9322 40.8249 44.9088C40.614 43.8775 40.237 42.7905 40.5661 41.7456C41.03 40.6538 42.0134 39.8754 42.4871 38.7875C42.5437 37.6683 41.5368 36.7093 41.8396 35.5706C42.1628 34.3831 43.2556 33.633 43.7527 32.5373C43.8182 31.9465 43.4187 31.4328 43.1316 30.9494C42.6609 30.2413 42.1619 29.4034 42.4041 28.5196C42.7244 27.4649 43.4734 26.5928 43.7625 25.5244C43.865 25.1894 43.6873 24.8632 43.5486 24.5693C43.2068 23.9364 42.7566 23.3495 42.1912 22.9003C41.821 22.5995 41.32 22.6112 40.8718 22.5448C38.4996 22.3114 36.1129 22.2421 33.73 22.2762C32.9438 22.2694 32.1625 22.4286 31.3764 22.3456C30.3949 22.2674 29.431 21.9188 28.6507 21.3153C27.9993 20.8104 27.3509 20.1434 27.2971 19.2742C27.2239 18.156 27.7581 17.1179 28.2747 16.1618C28.9378 14.9869 29.6742 13.8551 30.391 12.7125C30.7269 12.1802 31.016 11.6021 31.099 10.9712C31.3832 8.84417 30.9779 6.57359 29.7386 4.79521C29.5228 4.53056 29.306 4.18973 28.9476 4.12039C28.6331 4.18191 28.6009 4.55888 28.5491 4.81768ZM4.12747 28.3721C4.12454 34.4163 4.12845 40.4614 4.12552 46.5065C6.46739 46.5182 8.81024 46.5104 11.1531 46.5114C11.1531 40.4643 11.155 34.4182 11.158 28.3721C8.81415 28.3731 6.47032 28.3731 4.12747 28.3721Z" fill="#051C2C" stroke="#051C2C"/>
</svg>
